%!PS-Adobe-2.0 EPSF-2.0
%%BoundingBox: 0 0 200 200
%%EndComments

gsave
0.5 setgray
5 setlinewidth
newpath
% outer part, clockwise
0 0 moveto
0 200 lineto
150 200 lineto
150 150 lineto
200 150 lineto
200 0 lineto
closepath
% inner part, anticlockwise
100 100 moveto
150 100 lineto
150 150 lineto
100 150 lineto
closepath
clip
stroke
eoclip
grestore

showpage
