netcdf node4 {
dimensions:
	x = 2 ;
	y = 2 ;
variables:
	double x(x) ;
		x:long_name = "x" ;
		x:actual_range = 0., 1. ;
		x:axis = "X" ;
	double y(y) ;
		y:long_name = "y" ;
		y:actual_range = 1., 2. ;
		y:axis = "Y" ;
	float z(y, x) ;
		z:_FillValue = NaNf ;
		z:long_name = "z" ;
		z:actual_range = 0.100000001490116, 0.400000005960464 ;

// global attributes:
		:Conventions = "CF-1.7" ;
		:title = "" ;
		:history = "gmt xyz2grd -Gnode3.grd -R0/1/1/2 -I1" ;
		:description = "" ;
		:GMT_version = "6.4.0 [64-bit]" ;
data:

 x = 0, 1 ;

 y = 1, 2 ;

 z =
  0.1, 0.3,
  0.2, 0.4 ;
}
